Labs/Lab8/AudioController.vcd
$date
	Sat Apr 20 01:35:58 2024
$end
$version
	Icarus Verilog
$end
$timescale
	1ps
$end
$scope module AudioController_tb $end
$var wire 1 ! audioEn $end
$var wire 1 " chSel $end
$var wire 1 # toneAudio $end
$var wire 1 $ micClk $end
$var wire 1 % audioOut $end
$var reg 1 & clk $end
$var reg 1 ' micData $end
$var reg 4 ( switches [3:0] $end
$scope module uut $end
$var wire 18 ) Counter1MHzLimit [17:0] $end
$var wire 1 ! audioEn $end
$var wire 1 % audioOut $end
$var wire 1 " chSel $end
$var wire 1 & clk $end
$var wire 1 $ micClk $end
$var wire 1 ' micData $end
$var wire 4 * switches [3:0] $end
$var wire 1 + toneAudio $end
$var wire 7 , duty_cycle [6:0] $end
$var wire 18 - CounterLimit [17:0] $end
$var reg 1 . clk1MHz $end
$var reg 1 / clkHz $end
$var reg 18 0 counter [17:0] $end
$var reg 18 1 counter1MHz [17:0] $end
$var reg 1 2 micinData $end
$scope module s $end
$var wire 1 & clk $end
$var wire 7 3 duty_cycle [6:0] $end
$var wire 1 4 reset $end
$var wire 1 5 lessThan $end
$var reg 1 6 delayerBit $end
$var reg 7 7 pulseCounter [6:0] $end
$var reg 1 + signal $end
$upscope $end
$upscope $end
$upscope $end
$enddefinitions $end
#0
$dumpvars
b0 7
06
15
04
b11001 3
x2
b0 1
b0 0
0/
0.
bx -
b11001 ,
1+
b0 *
b110001 )
b0 (
0'
0&
x%
0$
1#
0"
1!
$end
#5000
b1001010 ,
b1001010 3
b1 7
1/
b1 1
1&
#10000
0&
#15000
b11001 ,
b11001 3
b10 7
b10 1
0/
1&
#20000
0&
#25000
b1001010 ,
b1001010 3
b11 7
1/
b11 1
1&
#30000
0&
#35000
b11001 ,
b11001 3
b100 7
b100 1
0/
1&
#40000
0&
#45000
b1001010 ,
b1001010 3
b101 7
1/
b101 1
1&
#50000
0&
#55000
b11001 ,
b11001 3
b110 7
b110 1
0/
1&
#60000
0&
#65000
b1001010 ,
b1001010 3
b111 7
1/
b111 1
1&
#70000
0&
#75000
b11001 ,
b11001 3
b1000 7
b1000 1
0/
1&
#80000
0&
#85000
b1001010 ,
b1001010 3
b1001 7
1/
b1001 1
1&
#90000
0&
#95000
b11001 ,
b11001 3
b1010 7
b1010 1
0/
1&
#100000
0&
b1 (
b1 *
#105000
b1001010 ,
b1001010 3
b1011 7
1/
b1011 1
1&
#110000
0&
#115000
b11001 ,
b11001 3
b1100 7
b1100 1
0/
1&
#120000
0&
#125000
b1001010 ,
b1001010 3
b1101 7
1/
b1101 1
1&
#130000
0&
#135000
b11001 ,
b11001 3
b1110 7
b1110 1
0/
1&
#140000
0&
#145000
b1001010 ,
b1001010 3
b1111 7
1/
b1111 1
1&
#150000
0&
#155000
b11001 ,
b11001 3
b10000 7
b10000 1
0/
1&
#160000
0&
#165000
b1001010 ,
b1001010 3
b10001 7
1/
b10001 1
1&
#170000
0&
#175000
b11001 ,
b11001 3
b10010 7
b10010 1
0/
1&
#180000
0&
#185000
b1001010 ,
b1001010 3
b10011 7
1/
b10011 1
1&
#190000
0&
#195000
b11001 ,
b11001 3
b10100 7
b10100 1
0/
1&
#200000
0&
#205000
b1001010 ,
b1001010 3
b10101 7
1/
b10101 1
1&
#210000
0&
#215000
b11001 ,
b11001 3
b10110 7
b10110 1
0/
1&
#220000
0&
#225000
b1001010 ,
b1001010 3
b10111 7
1/
b10111 1
1&
#230000
0&
#235000
b11001 ,
b11001 3
b11000 7
b11000 1
0/
1&
#240000
0&
#245000
b1001010 ,
b1001010 3
15
b11001 7
1/
b11001 1
1&
#250000
0&
#255000
05
b11001 ,
b11001 3
b11010 7
b11010 1
0/
1&
#260000
0#
0+
0&
#265000
15
b1001010 ,
b1001010 3
b11011 7
1/
b11011 1
1&
#270000
1#
1+
0&
#275000
05
b11001 ,
b11001 3
b11100 7
b11100 1
0/
1&
#280000
0#
0+
0&
#285000
15
b1001010 ,
b1001010 3
b11101 7
1/
b11101 1
1&
#290000
1#
1+
0&
#295000
05
b11001 ,
b11001 3
b11110 7
b11110 1
0/
1&
#300000
0#
0+
0&
b10 (
b10 *
#305000
15
b1001010 ,
b1001010 3
b11111 7
1/
b11111 1
1&
#310000
1#
1+
0&
#315000
05
b11001 ,
b11001 3
b100000 7
b100000 1
0/
1&
#320000
0#
0+
0&
#325000
15
b1001010 ,
b1001010 3
b100001 7
1/
b100001 1
1&
#330000
1#
1+
0&
#335000
05
b11001 ,
b11001 3
b100010 7
b100010 1
0/
1&
#340000
0#
0+
0&
#345000
15
b1001010 ,
b1001010 3
b100011 7
1/
b100011 1
1&
#350000
1#
1+
0&
#355000
05
b11001 ,
b11001 3
b100100 7
b100100 1
0/
1&
#360000
0#
0+
0&
#365000
15
b1001010 ,
b1001010 3
b100101 7
1/
b100101 1
1&
#370000
1#
1+
0&
#375000
05
b11001 ,
b11001 3
b100110 7
b100110 1
0/
1&
#380000
0#
0+
0&
#385000
15
b1001010 ,
b1001010 3
b100111 7
1/
b100111 1
1&
#390000
1#
1+
0&
#395000
05
b11001 ,
b11001 3
b101000 7
b101000 1
0/
1&
#400000
0#
0+
0&
#405000
15
b1001010 ,
b1001010 3
b101001 7
1/
b101001 1
1&
#410000
1#
1+
0&
#415000
05
b11001 ,
b11001 3
b101010 7
b101010 1
0/
1&
#420000
0#
0+
0&
#425000
15
b1001010 ,
b1001010 3
b101011 7
1/
b101011 1
1&
#430000
1#
1+
0&
#435000
05
b11001 ,
b11001 3
b101100 7
b101100 1
0/
1&
#440000
0#
0+
0&
#445000
15
b1001010 ,
b1001010 3
b101101 7
1/
b101101 1
1&
#450000
1#
1+
0&
#455000
05
b11001 ,
b11001 3
b101110 7
b101110 1
0/
1&
#460000
0#
0+
0&
#465000
15
b1001010 ,
b1001010 3
b101111 7
1/
b101111 1
1&
#470000
1#
1+
0&
#475000
05
b11001 ,
b11001 3
b110000 7
b110000 1
0/
1&
#480000
0#
0+
0&
#485000
15
b1001010 ,
b1001010 3
b110001 7
1/
b110001 1
1&
#490000
1#
1+
0&
#495000
0%
02
05
b11001 ,
b11001 3
b110010 7
1$
1.
b0 1
0/
1&
#500000
0#
0+
0&
b100 (
b100 *
#505000
15
b1001010 ,
b1001010 3
b110011 7
1/
b1 1
1&
#510000
1#
1+
0&
#515000
05
b11001 ,
b11001 3
b110100 7
b10 1
0/
1&
#520000
0#
0+
0&
#525000
15
b1001010 ,
b1001010 3
b110101 7
1/
b11 1
1&
#530000
1#
1+
0&
#535000
05
b11001 ,
b11001 3
b110110 7
b100 1
0/
1&
#540000
0#
0+
0&
#545000
15
b1001010 ,
b1001010 3
b110111 7
1/
b101 1
1&
#550000
1#
1+
0&
#555000
05
b11001 ,
b11001 3
b111000 7
b110 1
0/
1&
#560000
0#
0+
0&
#565000
15
b1001010 ,
b1001010 3
b111001 7
1/
b111 1
1&
#570000
1#
1+
0&
#575000
05
b11001 ,
b11001 3
b111010 7
b1000 1
0/
1&
#580000
0#
0+
0&
#585000
15
b1001010 ,
b1001010 3
b111011 7
1/
b1001 1
1&
#590000
1#
1+
0&
#595000
05
b11001 ,
b11001 3
b111100 7
b1010 1
0/
1&
#600000
0#
0+
0&
#605000
15
b1001010 ,
b1001010 3
b111101 7
1/
b1011 1
1&
#610000
1#
1+
0&
#615000
05
b11001 ,
b11001 3
b111110 7
b1100 1
0/
1&
#620000
0#
0+
0&
#625000
15
b1001010 ,
b1001010 3
b111111 7
1/
b1101 1
1&
#630000
1#
1+
0&
#635000
05
b11001 ,
b11001 3
b1000000 7
b1110 1
0/
1&
#640000
0#
0+
0&
#645000
15
b1001010 ,
b1001010 3
b1000001 7
1/
b1111 1
1&
#650000
1#
1+
0&
#655000
05
b11001 ,
b11001 3
b1000010 7
b10000 1
0/
1&
#660000
0#
0+
0&
#665000
15
b1001010 ,
b1001010 3
b1000011 7
1/
b10001 1
1&
#670000
1#
1+
0&
#675000
05
b11001 ,
b11001 3
b1000100 7
b10010 1
0/
1&
#680000
0#
0+
0&
#685000
15
b1001010 ,
b1001010 3
b1000101 7
1/
b10011 1
1&
#690000
1#
1+
0&
#695000
05
b11001 ,
b11001 3
b1000110 7
b10100 1
0/
1&
#700000
0#
0+
0&
b1000 (
b1000 *
#705000
15
b1001010 ,
b1001010 3
b1000111 7
1/
b10101 1
1&
#710000
1#
1+
0&
#715000
05
b11001 ,
b11001 3
b1001000 7
b10110 1
0/
1&
#720000
0#
0+
0&
#725000
15
b1001010 ,
b1001010 3
b1001001 7
1/
b10111 1
1&
#730000
1#
1+
0&
#735000
b11001 ,
b11001 3
05
b1001010 7
b11000 1
0/
1&
#740000
0#
0+
0&
#745000
b1001010 ,
b1001010 3
b1001011 7
1/
b11001 1
1&
#750000
0&
#755000
b11001 ,
b11001 3
b1001100 7
b11010 1
0/
1&
#760000
0&
#765000
b1001010 ,
b1001010 3
b1001101 7
1/
b11011 1
1&
#770000
0&
#775000
b11001 ,
b11001 3
b1001110 7
b11100 1
0/
1&
#780000
0&
#785000
b1001010 ,
b1001010 3
b1001111 7
1/
b11101 1
1&
#790000
0&
#795000
b11001 ,
b11001 3
b1010000 7
b11110 1
0/
1&
#800000
0&
#805000
b1001010 ,
b1001010 3
b1010001 7
1/
b11111 1
1&
#810000
0&
#815000
b11001 ,
b11001 3
b1010010 7
b100000 1
0/
1&
#820000
0&
#825000
b1001010 ,
b1001010 3
b1010011 7
1/
b100001 1
1&
#830000
0&
#835000
b11001 ,
b11001 3
b1010100 7
b100010 1
0/
1&
#840000
0&
#845000
b1001010 ,
b1001010 3
b1010101 7
1/
b100011 1
1&
#850000
0&
#855000
b11001 ,
b11001 3
b1010110 7
b100100 1
0/
1&
#860000
0&
#865000
b1001010 ,
b1001010 3
b1010111 7
1/
b100101 1
1&
#870000
0&
#875000
b11001 ,
b11001 3
b1011000 7
b100110 1
0/
1&
#880000
0&
#885000
b1001010 ,
b1001010 3
b1011001 7
1/
b100111 1
1&
#890000
0&
#895000
b11001 ,
b11001 3
b1011010 7
b101000 1
0/
1&
